Great British bakeoff results — bakeoff • Stat406
…
    This is a combination of two datasets in Allison Hill's bakeoff package.

    Details

    bakeoff_train is the training set for use on the homework.

bakeoff_test is the Test set for use on the homework.
It contains a held out set of 137 bakers
and omits the winners column.

    Examples

bakeoff_train
#> # A tibble: 71 × 16
#>    winners series   age occupation  hometown percent_star percent_technical_wins
#>    <lgl>    <dbl> <dbl> <chr>       <chr>           <dbl>                  <dbl>
#>  1 FALSE        1    30 CEO of the… Northam…        0                      0    
#>  2 FALSE        1    45 Advertisin… Brackne…        0                      0    
#>  3 FALSE        1    25 Council Wo… London          0                      0.333
#>  4 FALSE        1    51 Student     Teignmo…        0                      0    
#>  5 FALSE        1    44 Student su… Sneinto…        0                      0    
#>  6 FALSE        1    48 IT program… Poynton…        0                      0    
#>  7 TRUE         1    31 Charity wo… Barton-…        0                      0    
#>  8 TRUE         2    31 Pastor      Essex           0.25                   0.25 
#>  9 FALSE        2    40 Charity wo… West Ki…        0                      0    
#> 10 TRUE         2    41 Former sch… Woodfor…        0.125                  0.375
#> # ℹ 61 more rows
#> # ℹ 9 more variables: percent_technical_bottom3 <dbl>,
#> #   percent_technical_top3 <dbl>, technical_highest <dbl>,
#> #   technical_lowest <dbl>, technical_median <dbl>, judge1 <chr>, judge2 <chr>,
#> #   viewers_7day <dbl>, viewers_28day <dbl>

bakeoff_test
#> # A tibble: 30 × 15
#>    series   age occupation          hometown percent_star percent_technical_wins
#>     <dbl> <dbl> <chr>               <chr>           <dbl>                  <dbl>
#>  1      1    24 Assistant Credit C… Leicest…        0                      0.333
#>  2      1    37 PA and administrat… Saltley…        0                      0.333
#>  3      1    31 Student             Swansea…        0                      0    
#>  4      2    19 Photographer        Midhurs…        0.4                    0.2  
#>  5      2    31 IT programme manag… Radlett…        0                      0.25 
#>  6      2    63 Project engagement… Erith           0.143                  0.143
#>  7      3    28 Dentist             North L…        0                      0.143
#>  8      3    36 Graphic designer    Manches…        0                      0    
#>  9      3    23 Trainee anaestheti… Merseys…        0.1                    0.1  
#> 10      4    31 Intensive care con… Yeovil          0.1                    0.1  
#> # ℹ 20 more rows
#> # ℹ 9 more variables: percent_technical_bottom3 <dbl>,
#> #   percent_technical_top3 <dbl>, technical_highest <dbl>,
#> #   technical_lowest <dbl>, technical_median <dbl>, judge1 <chr>, judge2 <chr>,
#> #   viewers_7day <dbl>, viewers_28day <dbl>
…
