COVID 19 Cases in BC for the last year — bccovid • Stat406
…
bccovid_train is the Training set for use on the homework.
It contains only the data prior to 1 August 2021.

bccovid_test is the Test set for use on the homework.
It contains 137 rows
of the data (between 1 August 2021 and 1 December 2021).

bcpop gives the number of people living in each BC Health Authority as of
the 2020 Census

    Examples

bccovid
#> # A tibble: 1,143 × 2
#>    date       cases
#>    <date>     <int>
#>  1 2020-01-29     1
#>  2 2020-02-06     1
#>  3 2020-02-10     2
#>  4 2020-02-18     1
#>  5 2020-02-24     2
#>  6 2020-03-03     5
#>  7 2020-03-05     8
#>  8 2020-03-06     7
#>  9 2020-03-07     1
#> 10 2020-03-08     4
#> # ℹ 1,133 more rows
bccovid_train
#> # A tibble: 1,655 × 6
#>    HA     date       `cases+14` `cases+0` `cases-7` `cases-14`
#>    <chr>  <date>          <dbl>     <dbl>     <dbl>      <dbl>
#>  1 Fraser 2020-08-21        339       304       269        185
#>  2 Fraser 2020-08-22        335       319       277        172
#>  3 Fraser 2020-08-23        356       298       311        162
#>  4 Fraser 2020-08-24        374       301       298        180
#>  5 Fraser 2020-08-25        409       290       296        196
#>  6 Fraser 2020-08-26        414       305       292        212
#>  7 Fraser 2020-08-27        402       296       308        222
#>  8 Fraser 2020-08-28        393       285       304        269
#>  9 Fraser 2020-08-29        378       298       319        277
#> 10 Fraser 2020-08-30        355       304       298        311
#> # ℹ 1,645 more rows
bccovid_test
#> # A tibble: 685 × 6
#>    HA     date       `cases+14` `cases+0` `cases-7` `cases-14`
#>    <chr>  <date>          <dbl>     <dbl>     <dbl>      <dbl>
#>  1 Fraser 2022-07-18        339       372       393        355
#>  2 Fraser 2022-07-19        333       386       372        372
#>  3 Fraser 2022-07-20        305       359       395        381
#>  4 Fraser 2022-07-21        303       319       410        388
#>  5 Fraser 2022-07-22        299       341       397        376
#>  6 Fraser 2022-07-23        291       328       383        383
#>  7 Fraser 2022-07-24        307       328       370        403
#>  8 Fraser 2022-07-25        291       329       372        393
#>  9 Fraser 2022-07-26        266       351       386        372
#> 10 Fraser 2022-07-27        284       366       359        395
#> # ℹ 675 more rows
…
