A subset of the NYTimes document corpus — nytimes • Stat406
…
The New York Times has established a community website for researchers
working on the data set at http://groups.google.com/group/nytnlp and
encourages feedback and discussion about the corpus.

nyt_raw contains the raw bag-of-words representation.

nyt_tfidf hass the same format as nyt_raw but after applying TF-IDF
weighting.

    Examples

nyt_raw
#> # A tibble: 102 × 4,426
#>    class.labels     a abandoned   abc ability  able about above abroad absorbed
#>    <fct>        <dbl>     <dbl> <dbl>   <dbl> <dbl> <dbl> <dbl>  <dbl>    <dbl>
#>  1 art             43         0     0       0     0    10     0      0        0
#>  2 art              4         0     0       0     1     0     0      0        0
#>  3 art             44         0     0       0     0     0     2      0        0
#>  4 art             42         0     0       0     0     2     0      1        0
#>  5 art             38         0     0       0     0     0     0      0        0
#>  6 art             46         0     0       0     0     2     2      0        0
#>  7 art             81         0     0       0     1     6     0      0        0
#>  8 art              6         0     0       0     0     0     0      0        0
#>  9 art             18         0     0       0     0     0     0      0        0
#> 10 art             31         0     0       0     0     0     0      0        0
#> # ℹ 92 more rows
#> # ℹ 4,416 more variables: absorbing <dbl>, abstract <dbl>, abstraction <dbl>,
#> #   abstractions <dbl>, abundance <dbl>, academic <dbl>, academy <dbl>,
#> #   accents <dbl>, accept <dbl>, access <dbl>, accessible <dbl>,
#> #   acclaimed <dbl>, accommodate <dbl>, accompanied <dbl>, accompanying <dbl>,
#> #   according <dbl>, accordingly <dbl>, account <dbl>, accounted <dbl>,
#> #   accused <dbl>, achieved <dbl>, achievement <dbl>, acknowledge <dbl>, …
nyt_tfidf
#> # A tibble: 102 × 4,426
#>    class.labels       a abandoned   abc ability    able  about  above abroad
#>    <fct>          <dbl>     <dbl> <dbl>   <dbl>   <dbl>  <dbl>  <dbl>  <dbl>
#>  1 art          0.00756         0     0       0 0       0.0533 0      0     
#>  2 art          0.00142         0     0       0 0.0399  0      0      0     
#>  3 art          0.0101          0     0       0 0       0      0.0536 0     
#>  4 art          0.00868         0     0       0 0       0.0125 0      0.0410
#>  5 art          0.00839         0     0       0 0       0      0      0     
#>  6 art          0.0120          0     0       0 0       0.0158 0.0614 0     
#>  7 art          0.00689         0     0       0 0.00957 0.0155 0      0     
#>  8 art          0.00516         0     0       0 0       0      0      0     
#>  9 art          0.00749         0     0       0 0       0      0      0     
#> 10 art          0.00766         0     0       0 0       0      0      0     
#> # ℹ 92 more rows
#> # ℹ 4,417 more variables: absorbed <dbl>, absorbing <dbl>, abstract <dbl>,
#> #   abstraction <dbl>, abstractions <dbl>, abundance <dbl>, academic <dbl>,
#> #   academy <dbl>, accents <dbl>, accept <dbl>, access <dbl>, accessible <dbl>,
#> #   acclaimed <dbl>, accommodate <dbl>, accompanied <dbl>, accompanying <dbl>,
#> #   according <dbl>, accordingly <dbl>, account <dbl>, accounted <dbl>,
#> #   accused <dbl>, achieved <dbl>, achievement <dbl>, acknowledge <dbl>, …
…
