Spotify data for 3 artists — popmusic • Stat406
…
Documentation is from Spotify API.

    Details

    popmusic_train is the training set.

popmusic_test is the test set.
It contains a held out set of 425 songs.

    Examples

popmusic_train
#> # A tibble: 1,269 × 15
#>    artist      danceability energy   key loudness  mode speechiness acousticness
#>    <fct>              <dbl>  <dbl> <int>    <dbl> <int>       <dbl>        <dbl>
#>  1 Taylor Swi…        0.781  0.357     0   -16.4      1      0.912       0.717  
#>  2 Taylor Swi…        0.627  0.266     9   -15.4      1      0.929       0.796  
#>  3 Taylor Swi…        0.516  0.917    11    -3.19     0      0.0827      0.0139 
#>  4 Taylor Swi…        0.629  0.757     1    -8.37     0      0.0512      0.00384
#>  5 Taylor Swi…        0.686  0.705     9   -10.8      1      0.249       0.832  
#>  6 Taylor Swi…        0.522  0.691     2    -4.82     1      0.0307      0.00609
#>  7 Taylor Swi…        0.31   0.374     6    -8.46     1      0.0275      0.761  
#>  8 Taylor Swi…        0.705  0.621     2    -8.09     1      0.0334      0.101  
#>  9 Taylor Swi…        0.553  0.604     1    -5.30     0      0.0258      0.202  
#> 10 Taylor Swi…        0.419  0.908     9    -5.16     1      0.0651      0.00048
#> # ℹ 1,259 more rows
#> # ℹ 7 more variables: instrumentalness <dbl>, liveness <dbl>, valence <dbl>,
#> #   tempo <dbl>, time_signature <int>, duration_ms <int>, explicit <lgl>

popmusic_test
#> # A tibble: 425 × 15
#>    artist      danceability energy   key loudness  mode speechiness acousticness
#>    <fct>              <dbl>  <dbl> <int>    <dbl> <int>       <dbl>        <dbl>
#>  1 Taylor Swi…        0.694  0.38      2   -10.3      1      0.0614       0.416 
#>  2 Taylor Swi…        0.7    0.55      7    -9.13     1      0.0653       0.0661
#>  3 Taylor Swi…        0.334  0.161     0   -14.9      1      0.0506       0.967 
#>  4 Taylor Swi…        0.483  0.84      7    -6.51     1      0.119        0.43  
#>  5 Taylor Swi…        0.65   0.404     7    -8.40     1      0.0356       0.0616
#>  6 Taylor Swi…        0.722  0.494     7    -8.69     1      0.204        0.216 
#>  7 Taylor Swi…        0.654  0.638     8    -7.08     1      0.075        0.0727
#>  8 Taylor Swi…        0.696  0.485     7   -10.6      1      0.123        0.103 
#>  9 Taylor Swi…        0.571  0.477    11    -9.74     0      0.246        0.313 
#> 10 Taylor Swi…        0.681  0.396     0   -12.1      1      0.0487       0.487 
#> # ℹ 415 more rows
#> # ℹ 7 more variables: instrumentalness <dbl>, liveness <dbl>, valence <dbl>,
#> #   tempo <dbl>, time_signature <int>, duration_ms <int>, explicit <lgl>
…
